<?xml version="1.0" encoding="UTF-8" standalone="no"?>
<!-- Created with Inkscape (http://www.inkscape.org/) -->

<svg
   xmlns:osb="http://www.openswatchbook.org/uri/2009/osb"
   xmlns:dc="http://purl.org/dc/elements/1.1/"
   xmlns:cc="http://creativecommons.org/ns#"
   xmlns:rdf="http://www.w3.org/1999/02/22-rdf-syntax-ns#"
   xmlns:svg="http://www.w3.org/2000/svg"
   xmlns="http://www.w3.org/2000/svg"
   xmlns:xlink="http://www.w3.org/1999/xlink"
   xmlns:sodipodi="http://sodipodi.sourceforge.net/DTD/sodipodi-0.dtd"
   xmlns:inkscape="http://www.inkscape.org/namespaces/inkscape"
   width="64px"
   height="64px"
   id="svg2985"
   version="1.1"
   inkscape:version="0.92.3 (2405546, 2018-03-11)"
   sodipodi:docname="Power_Off._dark.svg">
  <defs
     id="defs2987">
    <linearGradient
       osb:paint="gradient"
       id="linearGradient5215-3">
      <stop
         id="stop4608"
         offset="0"
         style="stop-color:#000000;stop-opacity:1;" />
      <stop
         id="stop4610"
         offset="1"
         style="stop-color:#9c9c9c;stop-opacity:0.97321427;" />
    </linearGradient>
    <linearGradient
       osb:paint="gradient"
       id="linearGradient5215">
      <stop
         id="stop4601"
         offset="0"
         style="stop-color:#000000;stop-opacity:1;" />
      <stop
         id="stop4603"
         offset="1"
         style="stop-color:#9c9c9c;stop-opacity:0.97321427;" />
    </linearGradient>
    <linearGradient
       id="linearGradient4577">
      <stop
         id="stop4573"
         offset="0"
         style="stop-color:#ca9013;stop-opacity:1" />
      <stop
         id="stop4575"
         offset="1"
         style="stop-color:#e50000;stop-opacity:1;" />
    </linearGradient>
    <linearGradient
       id="linearGradient5231">
      <stop
         style="stop-color:#980000;stop-opacity:1;"
         offset="0"
         id="stop5233" />
      <stop
         style="stop-color:#e50000;stop-opacity:1;"
         offset="1"
         id="stop5235" />
    </linearGradient>
    <linearGradient
       id="linearGradient5223">
      <stop
         style="stop-color:#000000;stop-opacity:1"
         offset="0"
         id="stop5225" />
      <stop
         style="stop-color:#000000;stop-opacity:0.70588237"
         offset="1"
         id="stop5227" />
    </linearGradient>
    <linearGradient
       id="linearGradient5215-3-0"
       osb:paint="gradient">
      <stop
         style="stop-color:#000000;stop-opacity:1;"
         offset="0"
         id="stop5217" />
      <stop
         style="stop-color:#000000;stop-opacity:0.60372341"
         offset="1"
         id="stop5219" />
    </linearGradient>
    <linearGradient
       inkscape:collect="always"
       xlink:href="#linearGradient4577"
       id="linearGradient5237"
       x1="29.5"
       y1="20.75"
       x2="34.5"
       y2="20.75"
       gradientUnits="userSpaceOnUse" />
    <linearGradient
       inkscape:collect="always"
       xlink:href="#linearGradient4577"
       id="linearGradient4589"
       x1="47.666668"
       y1="16.833334"
       x2="16.999998"
       y2="47"
       gradientUnits="userSpaceOnUse" />
    <radialGradient
       inkscape:collect="always"
       xlink:href="#linearGradient5223"
       id="radialGradient4627"
       cx="31.999998"
       cy="32"
       fx="31.999998"
       fy="32"
       r="26.166664"
       gradientTransform="translate(0,-4.6651079e-6)"
       gradientUnits="userSpaceOnUse" />
    <radialGradient
       inkscape:collect="always"
       xlink:href="#linearGradient5215-3-0"
       id="radialGradient4635"
       gradientUnits="userSpaceOnUse"
       cx="32"
       cy="32"
       fx="32"
       fy="32"
       r="15.333333" />
  </defs>
  <sodipodi:namedview
     id="base"
     pagecolor="#ffffff"
     bordercolor="#666666"
     borderopacity="1.0"
     inkscape:pageopacity="0.0"
     inkscape:pageshadow="2"
     inkscape:zoom="6"
     inkscape:cx="-35.941247"
     inkscape:cy="35.334748"
     inkscape:current-layer="layer1"
     showgrid="true"
     inkscape:document-units="px"
     inkscape:grid-bbox="true"
     showguides="true"
     inkscape:guide-bbox="true"
     inkscape:window-width="1920"
     inkscape:window-height="1001"
     inkscape:window-x="-9"
     inkscape:window-y="-9"
     inkscape:window-maximized="1" />
  <metadata
     id="metadata2990">
    <rdf:RDF>
      <cc:Work
         rdf:about="">
        <dc:format>image/svg+xml</dc:format>
        <dc:type
           rdf:resource="http://purl.org/dc/dcmitype/StillImage" />
        <dc:title></dc:title>
      </cc:Work>
    </rdf:RDF>
  </metadata>
  <g
     id="layer1"
     inkscape:label="Layer 1"
     inkscape:groupmode="layer">
    <rect
       style="fill:#000000;stroke:#1a1a1a;stroke-opacity:0.27586207;fill-opacity:0"
       id="rect2999"
       width="55.999996"
       height="56.000004"
       x="4"
       y="3.9999998"
       ry="8.6000004" />
    <rect
       style="fill:url(#radialGradient4627);stroke:#e6e5e6;stroke-width:0.91812867;fill-opacity:1.0;stroke-opacity:1;opacity:1"
       id="rect2999-7"
       width="51.415199"
       height="51.415207"
       x="6.2923989"
       y="6.2923961"
       ry="7.8959069" />
    <path
       sodipodi:type="arc"
       style="fill:url(#linearGradient4589);stroke:#b3b3b3;fill-opacity:1;stroke-opacity:0.65517241"
       id="path3019"
       sodipodi:cx="32"
       sodipodi:cy="32"
       sodipodi:rx="14.833333"
       sodipodi:ry="14.833333"
       d="m 46.833333,32 a 14.833333,14.833333 0 1 1 -29.666666,0 14.833333,14.833333 0 1 1 29.666666,0 z" />
    <path
       sodipodi:type="arc"
       style="fill:url(#radialGradient4635);stroke:#f9f9f9;fill-opacity:1;stroke-opacity:0.44031832"
       id="path3019-1"
       sodipodi:cx="32"
       sodipodi:cy="32"
       sodipodi:rx="14.833333"
       sodipodi:ry="14.833333"
       d="m 46.833333,32 a 14.833333,14.833333 0 1 1 -29.666666,0 14.833333,14.833333 0 1 1 29.666666,0 z"
       transform="matrix(0.6847826,0,0,0.6847826,10.086957,10.086957)" />
    <rect
       style="fill:url(#linearGradient5237);stroke:#b3b3b3;fill-opacity:1.0;stroke-opacity:0.68965518"
       id="rect3041"
       width="4"
       height="14.5"
       x="30"
       y="13.5"
       ry="2" />
  </g>
</svg>
